[gd_scene load_steps=2 format=3 uid="uid://cb7h6i4ber8dr"]

[ext_resource type="Script" path="res://Scenes/multiplayer.gd" id="1_y2t66"]

[node name="Multiplayer" type="Node"]
script = ExtResource("1_y2t66")

[node name="level" type="Node" parent="."]

[node name="LevelSpawner" type="MultiplayerSpawner" parent="."]
_spawnable_scenes = PackedStringArray("res://Scenes/level.tscn")
spawn_path = NodePath("../level")
spawn_limit = 1

[node name="UI" type="Control" parent="."]
layout_mode = 3
anchors_preset = 0
offset_right = 839.0
offset_bottom = 238.0

[node name="Net" type="VBoxContainer" parent="UI"]
layout_mode = 0
offset_left = -1.0
offset_top = 7.0
offset_right = 366.0
offset_bottom = 80.0

[node name="Options" type="HBoxContainer" parent="UI/Net"]
layout_mode = 2

[node name="Label" type="Label" parent="UI/Net/Options"]
layout_mode = 2
text = "Direct:"

[node name="Host" type="Button" parent="UI/Net/Options"]
layout_mode = 2
text = "Host"

[node name="Connect" type="Button" parent="UI/Net/Options"]
layout_mode = 2
text = "Connect"

[node name="Remote" type="LineEdit" parent="UI/Net/Options"]
layout_mode = 2
text = "localhost"

[connection signal="pressed" from="UI/Net/Options/Host" to="." method="_on_host_pressed"]
[connection signal="pressed" from="UI/Net/Options/Connect" to="." method="_on_connect_pressed"]
